SRES,TF_name,TF_subname,finger,A1,C1,G1,T1,A2,C2,G2,T2,A3,C3,G3,T3,SEQ,POS,MODE,WARNING,MODE_LABEL,TFid
QLSTTN,Aef1,,F1,0.745455,0.215152,0.029293,0.010101,0.314141,0.50202,0.064983,0.118855,0.414279,0.176125,0.22764,0.181956,VCDRRFRQLSTLTNHVKI,9,_R,,UNK,Aef1
QSSTTN,Aef1,,F2,0.86936,0.127273,0.003367,0.0,0.027273,0.948822,0.000673,0.023232,0.890909,0.063636,0.008081,0.037374,VCDKTFRQSSTLTNHLKI,37,KR,,MODE6,Aef1
QLSTAN,Aef1,,F3,0.811448,0.148148,0.040404,0.0,0.052862,0.926936,0.006734,0.013468,0.857576,0.084175,0.00404,0.054209,FCPKHFRQLSTLANHVKI,65,KR,,MODE6,Aef1
QSSTNN,Aef1,,F4,0.584175,0.274411,0.139731,0.001684,0.035354,0.93569,0.006734,0.022222,0.929966,0.026936,0.0,0.043098,ICKKQFRQSSTLNNHIKI,93,KR,,MODE6,Aef1
QLSNKV,Blimp-1,,F1,0.96035,0.003605,0.028836,0.007209,0.972194,0.006179,0.00206,0.019567,0.138002,0.03862,0.776519,0.046859,VCCKTFGQLSNLKVHLRT,8,_G,,UNK,Blimp-1
QLAHQK,Blimp-1,,F2,0.033471,0.165808,0.071576,0.729145,0.033986,0.0,0.963955,0.00206,0.995366,0.0,0.00309,0.001545,VCTKSFTQLAHLQKHHLV,36,RT,,MODE2,Blimp-1
STSNKT,Blimp-1,,F3,0.781153,0.063852,0.085994,0.069001,0.915551,0.000515,0.069001,0.014933,0.018023,0.009784,0.960865,0.011329,ICKKRFSSTSNLKTHLRL,64,LS,,MODE4,Blimp-1
QFVHKL,Blimp-1,,F4,0.284243,0.289907,0.126159,0.299691,0.382595,0.043254,0.519567,0.054583,0.680227,0.15345,0.095778,0.070546,LCPQKFTQFVHLKLHKRL,92,RT,,MODE2,Blimp-1
KSYNLI,bowl,,F1,0.216792,0.00543,0.04386,0.733918,0.958229,0.023392,0.018379,0.0,0.0,0.003759,0.996241,0.0,FCNRQFTKSYNLLIHERT,10,_T,,UNK,bowl
RQDHRD,bowl,,F2,0.028822,0.951546,0.0,0.019632,0.526316,0.027569,0.446115,0.0,0.0,0.0,1.0,0.0,ICGKAFRRQDHLRDHRYI,38,RR,,MODE2,bowl
QSRTAV,bowl,,F3,0.390142,0.228488,0.21721,0.16416,0.396408,0.307435,0.086466,0.209691,0.460735,0.437343,0.055556,0.046366,ECGKGFCQSRTLAVHKIL,66,YC,,MODE5,bowl
KASHKT,btd,,F1,0.0,0.0,0.69,0.31,0.517,0.034,0.31,0.138,0.25,0.25,0.25,0.25,GCERLYGKASHLKTHLRW,7,_G,,UNK,btd
RSDEQR,btd,,F2,0.0,0.0,1.0,0.0,0.069,0.931,0.0,0.0,0.0,0.0,1.0,0.0,TCGKRFSRSDELQRHGRT,35,RS,,RS,btd
RSDHSK,btd,,F3,0.138,0.0,0.621,0.241,0.069,0.0,0.931,0.0,0.0,0.0,1.0,0.0,ICSKKFSRSDHLSKHKKT,63,RS,,RS,btd
KPAHKA,bteb2,,F1,0.0,0.0,0.338462,0.661538,0.443077,0.083077,0.273846,0.2,0.255385,0.172308,0.175385,0.396923,NCEKIYAKPAHLKAHLRR,17,_A,,UNK,bteb2
RSDEAR,bteb2,,F2,0.009231,0.0,0.978462,0.012308,0.024615,0.92,0.0,0.055385,0.006154,0.0,0.975385,0.018462,DCVWRFSRSDELARHKRS,47,RS,,RS,bteb2
RSDHTK,bteb2,,F3,0.009231,0.0,0.766154,0.224615,0.015385,0.0,0.956923,0.027692,0.003077,0.0,0.938462,0.058462,YCSKCFARSDHLTKHRKV,75,RA,,RA,bteb2
QSNTKQ,Cf2,PA,F2,0.694316,0.0,0.305684,0.0,0.149002,0.222734,0.135177,0.493088,0.25,0.25,0.25,0.25,YCGKSFTQSNTLKQHTRI,42,KT,,UNK,Cf2PA
VKDYTK,Cf2,PA,F3,0.0,0.009217,0.110599,0.880184,0.817204,0.102919,0.079877,0.0,0.09063,0.112135,0.261137,0.536098,YCGRAFTVKDYLNKHLTT,70,RT,,MODE2,Cf2PA
VKDYTK,Cf2,PA,F4,0.0,0.0,0.0,1.0,1.0,0.0,0.0,0.0,0.228879,0.563748,0.082949,0.124424,YCEKSFSVKDYLTKHIRT,98,TS,,UNK,Cf2PA
QRSATV,Cf2,PA,F5,0.25,0.25,0.25,0.25,0.186977,0.038829,0.160181,0.614013,1.0,0.0,0.0,0.0,YCDKRFTQRSALTVHTTK,126,RT,,MODE2,Cf2PA
TPGTAM,Cf2,PB,F1,0.267076,0.39591,0.142916,0.194097,0.320088,0.286761,0.24709,0.146061,0.25,0.25,0.25,0.25,DCPKTFKTPGTLAMHRKI,7,_K,,UNK,Cf2PB
QSNTKQ,Cf2,PB,F2,0.269461,0.091317,0.639222,0.0,0.009356,0.291916,0.038922,0.659805,0.748129,0.030314,0.164296,0.05726,YCGKSFTQSNTLKQHTRI,42,KT,,UNK,Cf2PB
VKDYTK,Cf2,PB,F3,0.0,0.0,0.03518,0.96482,1.0,0.0,0.0,0.0,0.056512,0.197605,0.128368,0.617515,YCEKSFSVKDYLTKHIRT,70,RS,,RS,Cf2PB
QRSATV,Cf2,PB,F4,0.454973,0.320477,0.155432,0.069119,0.106429,0.020629,0.107455,0.765486,0.988398,0.011602,0.0,0.0,YCDKRFTQRSALTVHTTK,98,RT,,MODE2,Cf2PB
KRGRME,CG10267,,F1,0.643101,0.041049,0.066135,0.249715,0.27138,0.101482,0.204105,0.423033,0.237172,0.036488,0.023945,0.702395,VCGNFYEKRGRMMEHRRR,9,_E,,UNK,CG10267
VREQRK,CG10267,,F2,0.0,0.0,0.0,1.0,0.729761,0.063854,0.205245,0.00114,0.132269,0.843786,0.023945,0.0,LCDAKFQVREQLRKHMYS,37,RQ,,MODE5,CG10267
YESVKS,CG10267,,F3,0.371747,0.007435,0.583643,0.037175,0.182156,0.01487,0.249071,0.553903,0.260223,0.115242,0.040892,0.583643,FCSRQFFYESVLKSHENV,65,YF,,MODE5,CG10267
YAHSTK,CG10267,,F4,0.055762,0.026022,0.788104,0.130112,0.063197,0.0,0.107807,0.828996,0.01487,0.003717,0.0,0.981413,VCDKAFAYAHSLTKHELI,93,NA,,MODE3,CG10267
LLHHRQ,CG10267,,F5,0.981413,0.0,0.003717,0.01487,0.0,0.0,0.903346,0.096654,0.007435,0.003717,0.163569,0.825279,YCNKDFRLLHHMRQHEET,121,LR,,MODE6,CG10267
SKENKL,CG11071,,F1,0.017997,0.216299,0.379287,0.386418,0.295715,0.139769,0.326865,0.237651,0.171707,0.195016,0.379057,0.25422,FCGKCVRSKENLKLHVRK,34,_R,,UNK,CG11071
GKSDTR,CG11071,,F2,0.006452,0.002037,0.981324,0.010187,0.005093,0.974194,0.012903,0.00781,0.087606,0.220034,0.216978,0.475382,FCGRAFGGKSDLTRHLRI,62,RG,,MODE1,CG11071
RADYSK,CG11071,,F3,0.004075,0.005093,0.091681,0.899151,0.92292,0.012903,0.055688,0.008489,0.003396,0.006452,0.980306,0.009847,SCGKCFARADYLSKHLTT,90,RA,,RA,CG11071
KSSHKA,CG12029,,F1,0.010223,0.040892,0.101301,0.847584,0.011152,0.0,0.977695,0.011152,0.008364,0.019517,0.846654,0.125465,GCSKVYTKSSHLKAHQRI,36,_T,,UNK,CG12029
RSDETR,CG12029,,F2,0.009294,0.0,0.986989,0.003717,0.090149,0.22026,0.0,0.689591,0.008364,0.0,0.983271,0.008364,ECEWRFARSDELTRHYRK,66,RA,,RA,CG12029
RSDHAL,CG12029,,F3,0.240706,0.017658,0.188662,0.552974,0.055762,0.001859,0.910781,0.031599,0.008364,0.002788,0.958178,0.030669,VCERSFARSDHLALHMKR,94,RA,,RA,CG12029
SVNARR,CG12236,PA,F1,0.008157,0.0,0.980424,0.011419,0.993475,0.0,0.0,0.006525,0.967374,0.003263,0.0,0.029364,FCGRPLKSVNALRRHIAS,5,_K,,UNK,CG12236PA
TKWSST,CG12236,PA,F2,0.412724,0.001631,0.574225,0.011419,0.804241,0.003263,0.182708,0.009788,0.0,0.001631,0.001631,0.996737,ICMKSFKTKWSLSTHNSR,36,AK,,UNK,CG12236PA
SMPAAM,CG12605,,F2,0.018109,0.006036,0.002012,0.973843,0.152918,0.014085,0.183099,0.649899,0.140845,0.042254,0.772636,0.044266,TCGKAYVSMPALAMHLLT,45,QV,,MODE5,CG12605
RPWLQG,CG12605,,F3,0.014085,0.905433,0.002012,0.078471,0.030181,0.002012,0.004024,0.963783,0.002012,0.0,0.983903,0.014085,ICGKLFSRPWLLQGHLRS,71,LS,,MODE4,CG12605
DRSNRA,CG12605,,F4,0.141275,0.713856,0.053896,0.090973,0.959759,0.002012,0.01006,0.028169,0.008048,0.991952,0.0,0.0,HCGKAFADRSNLRAHMQT,99,RA,,RA,CG12605
LKSYNK,CG12605,,F5,0.25,0.25,0.25,0.25,0.25,0.25,0.25,0.25,0.247879,0.500612,0.146487,0.105022,RCNKTFALKSYLNKHLES,127,QA,,UNK,CG12605
SMPASM,CG17181,,F2,0.045814,0.225908,0.014218,0.71406,0.164297,0.187994,0.118483,0.529226,0.345972,0.183254,0.369668,0.101106,YCEKVYVSMPAYSMHVRT,38,QV,,MODE5,CG17181
RPWLQG,CG17181,,F3,0.0,0.958926,0.009479,0.031596,0.009479,0.0,0.011058,0.979463,0.0,0.0,0.963665,0.036335,FCGKRFSRPWLLQGHIRT,64,RS,,RS,CG17181
DKSNRA,CG17181,,F4,0.058452,0.892575,0.018957,0.030016,0.943128,0.004739,0.00316,0.048973,0.004739,0.985782,0.0,0.009479,VCEKAFADKSNLRAHIQT,92,RA,,RA,CG17181
LKSYYK,CG17181,,F5,0.395409,0.177261,0.232553,0.194777,0.493686,0.24723,0.196677,0.062407,0.151659,0.774092,0.042654,0.031596,RCGKAFALKSYLYKHEES,120,QA,,UNK,CG17181
SNHQVQ,CG2052,,F1,0.986755,0.009934,0.003311,0.0,0.449227,0.072848,0.033113,0.444812,0.129148,0.372508,0.341602,0.156742,QCMKSFSSNHQLVQHIRV,8,_S,,UNK,CG2052
QLSHQQ,CG2052,,F2,1.0,0.0,0.0,0.0,0.99117,0.0,0.00883,0.0,1.0,0.0,0.0,0.0,YCDRRFKQLSHVQQHTRL,36,RK,,UNK,CG2052
QLSNQQ,CG2052,,F3,0.493377,0.059603,0.317881,0.129139,0.960265,0.0,0.009934,0.029801,0.995585,0.0,0.0,0.004415,DCGRAFIQLSNLQQHLRN,66,RI,,UNK,CG2052
TESSRT,CG2052,,F4,0.322296,0.264901,0.209713,0.203091,0.315673,0.278146,0.203091,0.203091,0.421634,0.210817,0.15011,0.217439,ICGKGFATESSLRTHTSK,100,RA,,RA,CG2052
KSSHRS,CG3065,,F1,0.005307,0.02047,0.150872,0.823351,0.021986,0.0,0.95906,0.018954,0.06141,0.047005,0.774829,0.116755,NCTKSYGKSSHLRSHLTW,15,_G,,UNK,CG3065
RSDENR,CG3065,,F2,0.002274,0.0,0.957544,0.040182,0.038666,0.913571,0.006823,0.04094,0.007582,0.0,0.978014,0.014405,KCGKGFTRSDELNRHLRT,45,TT,,UNK,CG3065
RSDHTK,CG3065,,F3,0.072782,0.015163,0.462472,0.449583,0.128127,0.000758,0.852919,0.018196,0.00834,0.0,0.9674,0.024261,QCTKKFSRSDHLTKHLAT,73,RS,,RS,CG3065
AHYNTR,CG31670,,F1,0.996997,0.0,0.003003,0.0,0.786787,0.0,0.105105,0.108108,0.069069,0.621622,0.006006,0.303303,ECGKVFNAHYNLTRHMPV,6,_N,,UNK,CG31670
QASTCR,CG31670,,F2,0.762763,0.132132,0.072072,0.033033,0.123123,0.045045,0.75976,0.072072,0.027027,0.933934,0.012012,0.027027,VCGKGFRQASTLCRHKII,34,PR,,UNK,CG31670
RSSTNT,CG31670,,F3,0.816817,0.003003,0.168168,0.012012,0.600601,0.009009,0.009009,0.381381,0.006006,0.009009,0.975976,0.009009,TCGKAFNRSSTLNTHSRI,62,IN,,MODE5,CG31670
QKGNKN,CG31670,,F4,0.42428,0.30545,0.152297,0.117973,0.921922,0.009009,0.048048,0.021021,0.948949,0.003003,0.015015,0.033033,YCGKGFHQKGNYKNHKLT,90,RH,,UNK,CG31670
FKNQTK,CG31782,,F9,0.198512,0.01018,0.774863,0.016445,0.569303,0.076742,0.112373,0.241582,0.14722,0.228661,0.518794,0.105325,DCSKLFRFKNQLTKHIQT,9,_R,,UNK,CG31782
QKHHVR,CG31782,,F10,0.000783,0.0,0.999217,0.0,0.0,0.0,1.0,0.0,0.151527,0.0,0.056382,0.792091,LCYWAFKQKHHLVRHMIV,37,QK,,MODE1,CG31782
KQSLRT,CG31782,,F11,0.328113,0.113547,0.373923,0.184417,0.147612,0.119421,0.57361,0.159358,0.105325,0.010572,0.227878,0.656226,ICQRSFKKQSLLRTHNSI,65,IK,,UNK,CG31782
YTQSLK,CG3407,,F3,0.292135,0.138577,0.123596,0.445693,0.25,0.25,0.25,0.25,0.25,0.25,0.25,0.25,SCERSFYTQSALKAHERT,365,YY,,UNK,CG3407
QWGDKY,CG3407,,F4,0.966292,0.014981,0.018727,0.0,0.022472,0.977528,0.0,0.0,0.621723,0.0,0.074906,0.303371,KCEFQFRQWGDLKYHIIS,393,RR,,MODE2,CG3407
RRYSVV,CG3407,,F5,0.007491,0.0,0.0,0.992509,0.0,0.0,0.0,1.0,0.014981,0.0,0.973783,0.011236,FCGKSFSRRYSLVVHRRI,422,IS,,UNK,CG3407
QLTTRN,CG4360,,F1,0.992586,0.000824,0.004119,0.002471,0.056425,0.937397,0.000824,0.005354,0.883443,0.056425,0.006178,0.053954,VCKNKFRQLTTLRNHMKI,18,_R,,UNK,CG4360
QISTTN,CG4360,,F2,0.954695,0.002883,0.04201,0.000412,0.005354,0.993822,0.000412,0.000412,0.995881,0.002059,0.000824,0.001236,HCDKAFRQISTLTNHVKI,46,KR,,MODE6,CG4360
QQSTIN,CG4360,,F3,0.832372,0.108731,0.05313,0.005766,0.013591,0.976936,0.003295,0.006178,0.985173,0.000412,0.004942,0.009473,ICAKDFRQQSTLINHIKT,74,KR,,MODE6,CG4360
ERVKTN,CG4854,,F1,0.135204,0.479592,0.048469,0.336735,0.647959,0.107143,0.191327,0.053571,0.221939,0.5,0.19898,0.079082,ICNNVYSERVKLTNHMKV,5,_S,,UNK,CG4854
QTPQAR,CG4854,,F2,0.892857,0.022959,0.005102,0.079082,0.946429,0.010204,0.002551,0.040816,0.033163,0.864796,0.007653,0.094388,ICHKRFRQTPQLARHMNT,33,KR,,MODE6,CG4854
DPSTIK,CG4854,,F3,0.079082,0.0,0.867347,0.053571,0.010204,0.941327,0.012755,0.035714,0.005102,0.920918,0.0,0.07398,YCDSRFADPSTRIKHQRI,61,NA,,MODE3,CG4854
YSNVRV,CG4854,,F4,0.17602,0.002551,0.816327,0.005102,0.005102,0.017857,0.012755,0.964286,0.012755,0.002551,0.017857,0.966837,FCSRSFGYSNVLRVHLKT,89,RG,,MODE1,CG4854
QLHHNS,CG4854,,F5,0.25,0.25,0.25,0.25,0.187784,0.129818,0.512471,0.169927,0.22449,0.336735,0.061224,0.377551,YCQKSFSQLHHKNSHEKS,117,KS,,MODE4,CG4854
KTSHRA,CG5669,,F1,0.0,0.0,0.605723,0.394277,0.217806,0.012719,0.72496,0.044515,0.068362,0.054054,0.812401,0.065183,GCHKVYGKTSHLRAHLRW,34,CG,,UNK,CG5669
RSDEQR,CG5669,,F2,0.0,0.0,0.992051,0.007949,0.058824,0.90461,0.0,0.036566,0.00159,0.0,0.992051,0.006359,FCGKRFTRSDELQRHRRT,64,RT,,MODE2,CG5669
RSDHSR,CG5669,,F3,0.133545,0.014308,0.421304,0.430843,0.168521,0.0,0.81876,0.012719,0.0,0.0,0.993641,0.006359,ECNKKFMRSDHLSKHIKT,92,RM,,MODE2,CG5669
EPELLE,CG7368,,F1,0.021186,0.004237,0.860169,0.114407,0.288136,0.09322,0.402542,0.216102,0.287433,0.072736,0.475279,0.164552,ECHVAYPEPELLEVHLVG,14,_P,,UNK,CG7368
RKDHTR,CG7368,,F2,0.0,0.0,0.995763,0.004237,0.004237,0.0,0.961864,0.033898,0.012712,0.0,0.974576,0.012712,ICQASLKRKDHLTRHKQS,42,VK,,MODE3,CG7368
RKEQSL,CG7368,,F3,0.088983,0.004237,0.720339,0.186441,0.262712,0.0,0.355932,0.381356,0.008475,0.0,0.847458,0.144068,VCLKAFKRKEQLSLHFVI,70,QK,,MODE1,CG7368
RKDHRK,CG7368,,F4,0.025424,0.0,0.563559,0.411017,0.016949,0.0,0.949153,0.033898,0.012712,0.0,0.974576,0.012712,ECGKGFYRKDHLRKHTRS,98,VY,,MODE1,CG7368
SYSGIG,CG7928,F2-6,F2,0.576117,0.271264,0.095865,0.056755,0.462222,0.198371,0.200648,0.138759,0.25,0.25,0.25,0.25,QCGKTLQSYSGFIGHLQN,37,KQ,,UNK,CG7928F2-6
RKFRKH,CG7928,F2-6,F3,0.596811,0.177677,0.161731,0.063781,0.296128,0.236902,0.28246,0.18451,0.53303,0.134396,0.207289,0.125285,VCPERFSRKFRLKHHMAW,65,QS,,UNK,CG7928F2-6
HKVAYK,CG7928,F2-6,F4,0.034169,0.095672,0.013667,0.856492,0.209567,0.031891,0.740319,0.018223,0.072893,0.594533,0.318907,0.013667,VCSKRFVHKVALYKHKMI,93,AV,,UNK,CG7928F2-6
TKAHER,CG7928,F2-6,F5,0.0,0.002278,0.995444,0.002278,0.0,0.0,0.990888,0.009112,0.469248,0.398633,0.031891,0.100228,VCGFKTRTKAHLERHMRS,122,MR,,UNK,CG7928F2-6
QMYNKA,CG7928,F2-6,F6,0.073357,0.666962,0.095208,0.164473,0.993166,0.0,0.0,0.006834,0.0,0.0,0.979499,0.020501,VCNKRFSQMYNMKAHLRE,150,RS,,RS,CG7928F2-6
SKQAKV,CG8319,,F5,0.024876,0.975124,0.0,0.0,0.00995,0.572139,0.024876,0.393035,0.133157,0.650425,0.058385,0.158033,FCVSNFRSKQALKVHIRI,151,HR,,UNK,CG8319
DNNNAK,CG8319,,F6,0.084577,0.0,0.915423,0.0,1.0,0.0,0.0,0.0,0.029851,0.965174,0.0,0.004975,HCPKTFSDNNNLAKHRRR,179,RS,,RS,CG8319
EKHHKR,CG8319,,F7,0.004975,0.0,0.945274,0.049751,0.0,0.0,0.99005,0.00995,0.054726,0.004975,0.00995,0.930348,ICLQDFREKHHLKRHFLG,207,RR,,MODE2,CG8319
KSSHKA,CG9895,,F1,0.00303,0.015152,0.214141,0.767677,0.068687,0.018182,0.826263,0.086869,0.063636,0.045455,0.788889,0.10202,GCDKVYTKSSHLKAHKRT,18,_T,,UNK,CG9895
RSDETR,CG9895,,F2,0.0,0.0,0.968687,0.031313,0.019192,0.650505,0.0,0.330303,0.00202,0.0,0.970707,0.027273,GCIWRFARSDELTRHYRK,48,RA,,RA,CG9895
RSDHSL,CG9895,,F3,0.242431,0.054033,0.203528,0.500007,0.044648,0.000302,0.930605,0.024446,0.00202,0.0,0.966667,0.031313,LCTRSFSRSDHLSLHMRR,76,RS,,RS,CG9895
YETNRA,chinmo,,F1,0.0,0.993325918,0.0,0.006674082,1.0,0.0,0.0,0.0,0.021134594,0.008898776,0.051167964,0.918798665,YCDRLYGYETNLRAHIRQ,52,_G,,UNK,chinmo
RNNTRR,chinmo,,F2,0.106785317,0.078976641,0.708565072,0.10567297,0.0,0.007786429,0.0,0.992213571,0.008898776,0.0,0.991101224,0.0,FCERTFTRNNTVRRHIAR,80,RT,,MODE2,chinmo
DPSSRK,ci,,F5,0.029678,0.042707,0.870069,0.057546,0.667752,0.177343,0.154904,0.0,0.018096,0.981542,0.0,0.000362,GCTKRYTDPSSLRKHVKT,150,NT,,UNK,ci
RKEHAN,crol-F7-16,,F7,0.0,0.0,1.0,0.0,0.017863,0.0,0.981786,0.00035,0.015762,0.004904,0.923292,0.056042,VCGKKYTRKEHLANHMRS,8,_T,,UNK,crol-F7-16
RKEHTN,crol-F7-17,,F8,0.049737,0.0,0.94711,0.003152,0.045184,0.005604,0.948511,0.000701,0.007005,0.0,0.987741,0.005254,ICGKSFSRKEHFTNHILW,36,RS,,RS,crol-F7-17
HVSNKL,D19B,,F10,0.001567,0.008229,0.058777,0.931426,0.959639,0.026254,0.014107,0.0,0.043495,0.134404,0.212382,0.609718,DCGKGFNHVSNMKLHYKV,14,_N,,UNK,D19B
KKQYRH,D19B,,F11,0.073276,0.096395,0.778213,0.052116,0.0,0.000392,0.924373,0.075235,0.000392,0.0,0.910658,0.08895,FCPKRFAKKQYLRHHEYI,43,KA,,UNK,D19B
QEQVKT,D19B,,F12,0.721003,0.168495,0.098354,0.012147,0.141458,0.565831,0.066614,0.226097,0.769984,0.005486,0.128527,0.096003,VCGKHFRQEQVLKTHMKV,71,YR,,UNK,D19B
DKGAKI,disco,,F1,0.974182,0.0,0.018933,0.006885,0.204819,0.783133,0.0,0.012048,0.2358,0.726334,0.017212,0.020654,ICFKTFCDKGALKIHFSA,29,_C,,UNK,disco
SRRSNR,disco,,F2,0.0,0.0,0.950086,0.049914,0.0,0.018933,0.0,0.981067,0.010327,0.969019,0.0,0.020654,GCNMVFSSRRSRNRHSAN,59,SS,,UNK,disco
DKGAKI,disco-r-F1-2,,F1,0.952823,0.015855,0.030549,0.000773,0.178268,0.806265,0.0,0.015468,0.181361,0.779582,0.023975,0.015081,VCLKTFCDKGALKIHFSA,43,_C,,UNK,disco-r-F1-2
SRRSNR,disco-r-F1-2,,F2,0.000387,0.0,0.999613,0.0,0.00348,0.001547,0.053751,0.941222,0.000773,0.999227,0.0,0.0,GCSMMFSSRRSRNRHSAN,73,SS,,UNK,disco-r-F1-2
RPWLQG,esg,,F3,0.0,1.0,0.0,0.0,0.0,0.0,0.181,0.819,0.002159,0.0,0.904642,0.093199,LCGKAFSRPWLLQGHIRT,7,_S,,UNK,esg
DRSNRA,esg,,F4,0.010795,0.989205,0.0,0.0,0.935588,0.064412,0.0,0.0,0.0,1.0,0.0,0.0,HCHRAFADRSNLRAHLQT,35,RA,,RA,esg
IVSVWH,fru,PI,F1,0.0,0.00274,0.00274,0.994521,0.934247,0.008219,0.0,0.057534,0.989041,0.008219,0.00274,0.0,RCVSCNKIVSNRWHHANI,24,_K,,UNK,fruPI
RRDNKA,fru,PI,F2,0.394521,0.556164,0.0,0.049315,1.0,0.0,0.0,0.0,0.005479,0.0,0.991781,0.00274,VCGQKFTRRDNMKAHCKI,51,NT,,UNK,fruPI
QAANTA,gl,,F2,0.131403,0.496659,0.155902,0.216036,0.601336,0.097996,0.11804,0.182628,0.594655,0.153675,0.122494,0.129176,DCNKSFSQAANLTAHVRT,37,RS,,RS,gl
QSSSTT,gl,,F3,0.445434,0.309577,0.109131,0.135857,0.109131,0.169265,0.028953,0.69265,0.759465,0.064588,0.075724,0.100223,ICDRRFSQSSSVTTHMRT,65,RS,,RS,gl
DSSTTK,gl,,F4,0.169265,0.033408,0.76392,0.033408,0.017817,0.957684,0.011136,0.013363,0.044543,0.926503,0.008909,0.020045,SCKKSFSDSSTLTKHLRI,93,RS,,RS,gl
QSGNNR,gl,,F5,0.101843,0.071876,0.748936,0.077345,0.91443,0.029891,0.018755,0.036924,0.939866,0.026726,0.020045,0.013363,LCLLRFSQSGNLNRHMRV,121,RS,,RS,gl
FKHHEY,hb,,F2,0.0,0.0,0.0,1.0,0.614286,0.057143,0.328571,0.0,0.25,0.25,0.25,0.25,KCPFVTEFKHHLEYHIRK,37,RE,,UNK,hb
NKSMNS,hb,,F3,0.0,0.0,0.0,1.0,0.0,0.0,0.0,1.0,0.057143,0.0,0.0,0.942857,KCSYTCVNKSMLNSHRKS,65,RV,,MODE6,hb
YCHSKL,hb,,F4,0.128571,0.114286,0.471429,0.285714,0.0,0.0,0.0,1.0,0.0,0.0,0.0,1.0,DCDYATKYCHSFKLHLRK,93,KK,,UNK,hb
NNGQKG,Hkb,,F1,0.00072,0.010083,0.136118,0.853079,0.012604,0.0,0.976593,0.010803,0.650997,0.080728,0.12214,0.146135,NCDVAFSNNGQLKGHIRI,5,_S,,UNK,Hkb
RNEETR,Hkb,,F2,0.0,0.0,1.0,0.0,0.002521,0.991358,0.005762,0.00036,0.00036,0.0,0.99964,0.0,TCGKTFTRNEELTRHKRI,35,RT,,MODE2,Hkb
RRDHKK,Hkb,,F3,0.119203,0.020516,0.550945,0.309336,0.193734,0.0,0.806266,0.0,0.0,0.0,1.0,0.0,ACGKKFGRRDHLKKHMKT,63,RG,,MODE1,Hkb
QKSTLQ,jim,,F1,0.375887,0.524823,0.094563,0.004728,0.364066,0.288416,0.174941,0.172577,0.567376,0.130024,0.174941,0.12766,TCGKDFKQKSTLLQHDRI,15,_K,,UNK,jim
QQSHTQ,jim,,F2,0.87234,0.122931,0.004728,0.0,0.825059,0.01182,0.1513,0.01182,0.973995,0.0,0.026005,0.0,ECGKRFRQQSHLTQHLRI,43,RR,,MODE2,jim
QRAINQ,jim,,F3,0.978723,0.014184,0.0,0.007092,0.612293,0.245863,0.0,0.141844,0.971631,0.002364,0.009456,0.016548,YCSRSFRQRAILNQHIRI,71,RR,,MODE2,jim
QKAINQ,jim,,F4,0.499687,0.159888,0.259179,0.081247,0.303565,0.457664,0.110146,0.128625,0.879433,0.061466,0.014184,0.044917,ECGKHFRQKAILNQHVRT,99,RR,,MODE2,jim
MSWNKT,ken,,F1,0.992537,0.003731,0.001866,0.001866,0.998134,0.0,0.0,0.001866,0.003731,0.0,0.985075,0.011194,YCGKQFGMSWNLKTHLRV,7,_G,,UNK,ken
QKAHLK,ken,,F2,0.460821,0.020522,0.033582,0.485075,0.0,0.0,0.988806,0.011194,0.983209,0.0,0.0,0.016791,LCVAMFKQKAHLLKHLCS,35,RK,,UNK,ken
SVQEVR,ken,,F3,0.244403,0.337687,0.222015,0.195896,0.38806,0.037313,0.501866,0.072761,0.083955,0.001866,0.871269,0.04291,FCSMCFESVQELVRHLSG,74,CE,,UNK,ken
LHDRAK,klu,,F1,0.05169,0.047714,0.592445,0.308151,0.200795,0.127237,0.405567,0.266402,0.188867,0.168986,0.373757,0.26839,TCGQMFSLHDRLAKHMAS,34,_S,,UNK,klu
RSDMTR,klu,,F2,0.017893,0.0,0.976143,0.005964,0.141153,0.095427,0.011928,0.751491,0.005964,0.0,0.976143,0.017893,VCRRSFARSDMLTRHMRL,70,AA,,UNK,klu
RSDHST,klu,,F3,0.027833,0.011928,0.333996,0.626243,0.05169,0.0,0.93837,0.00994,0.019881,0.00994,0.964215,0.005964,VCGQVFSRSDHLSTHQRT,98,RS,,RS,klu
RRDMTR,klu,,F4,0.086604,0.039638,0.745404,0.128354,0.073559,0.457256,0.019881,0.449304,0.013917,0.001988,0.980119,0.003976,QCPYAACRRDMITRHMRT,126,RC,,UNK,klu
YKHVQN,Kr,,F1,0.048849,0.014534,0.936617,0.0,0.023819,0.008074,0.284215,0.683892,0.151797,0.035527,0.09891,0.713767,ICSRSFGYKHVLQNHERT,12,_G,,UNK,Kr
RDHHKT,Kr,,F2,0.612434,0.207105,0.134033,0.046427,0.0,0.0,1.0,0.0,0.062576,0.0,0.937424,0.0,ECHKRFTRDHHLKTHMRL,40,RT,,MODE2,Kr
QVANRR,Kr,,F3,0.195801,0.199839,0.428744,0.175616,0.605168,0.091239,0.238595,0.064998,0.726686,0.020993,0.08478,0.167541,HCDRQFVQVANLRRHLRV,68,RV,,MODE6,Kr
DRSLEQ,l(3)neo38,,F1,0.078861,0.042716,0.624315,0.254107,0.232202,0.118291,0.391019,0.258488,0.187734,0.163306,0.456844,0.192115,ECQMAYPDRSLIEQHVIS,18,_P,,UNK,l(3)neo38
RKDHTR,l(3)neo38,,F2,0.0,0.0,0.966046,0.033954,0.084337,0.0,0.914567,0.001095,0.0,0.0,0.990142,0.009858,ICNAALKRKDHLTRHKLS,46,IK,,UNK,l(3)neo38
RKEQTL,l(3)neo38,,F3,0.124863,0.023001,0.613363,0.238773,0.176342,0.082147,0.371303,0.370208,0.0,0.0,0.884995,0.115005,ICMKSFKRKEQLTLHIVI,74,LK,,UNK,l(3)neo38
RKDHRK,l(3)neo38,,F4,0.041621,0.005476,0.523549,0.429354,0.121577,0.0,0.851041,0.027382,0.0,0.0,0.993428,0.006572,ECGKGFYRKDHLRKHTRS,102,VY,,MODE1,l(3)neo38
DPSSRK,lmd,,F5,0.155979,0.221837,0.419411,0.202773,0.551127,0.315425,0.121317,0.012132,0.034662,0.894281,0.0,0.071057,GCTKRYTDPSSLRKHVKN,133,RT,,MODE2,lmd
LKSSRN,lola,PC,F1,0.992055,0.007945,0.0,0.0,0.990674,0.009326,0.0,0.0,0.989983,0.007945,0.002073,0.0,VCGRVYKLKSSLRNHQKW,12,_K,,UNK,lolaPC
QKMHGR,lola,PC,F2,0.06943,0.010017,0.786183,0.13437,0.0,0.000345,0.999655,0.0,0.719171,0.020035,0.260794,0.0,FCVYRAKQKMHIGRHMER,41,KK,,UNK,lolaPC
RKRHQR,lola,PD,F1,0.0,0.0,1.0,0.0,0.21872,0.0,0.78128,0.0,0.0,0.0,0.933142,0.066858,VCNKSYLRKRHLQRHMRD,12,_L,,UNK,lolaPD
RKYHVR,lola,PD,F2,0.0,0.0,0.716332,0.283668,0.0,0.0,0.714422,0.285578,0.0,0.0,1.0,0.0,FCSSRFRRKYHMVRHLVS,42,RR,,MODE2,lolaPD
DASSQR,lola,PF,F1,0.0,0.0,0.997753,0.002247,0.0,0.000749,0.026592,0.972659,0.023221,0.065169,0.010861,0.900749,NCLKSYKDASSLQRHIRY,31,_K,,UNK,lolaPF
QSSHKR,lola,PF,F2,0.004494,0.001498,0.993633,0.000375,0.05618,0.0,0.943446,0.000375,0.949438,0.000375,0.050187,0.0,MCGKAFSQSSHLKRHLES,60,RS,,RS,lolaPF
WKSTRR,lola,PG,F1,0.0,0.0,0.966205,0.033795,0.021967,0.972626,0.0,0.005407,0.035147,0.030416,0.102062,0.832376,HCGKKYRWKSTLRRHENV,37,_R,,UNK,lolaPG
QRGNGV,lola,PG,F2,0.782697,0.021291,0.040554,0.155458,0.99831,0.00169,0.0,0.0,0.98851,0.01149,0.0,0.0,YCPYKSKQRGNLGVHVRK,67,NK,,UNK,lolaPG
WKSTRR,lola,PI,F1,0.0,0.0,1.0,0.0,0.0,1.0,0.0,0.0,0.045574,0.027472,0.031587,0.895368,HCGKKYRWKSTLRRHENV,29,_R,,UNK,lolaPI
QRGNGV,lola,PI,F2,0.768872,0.054174,0.03977,0.137184,0.954733,0.045267,0.0,0.0,1.0,0.0,0.0,0.0,YCSYKAKQRGNLGVHVRK,59,NK,,UNK,lolaPI
RPHSNR,lola,PJ,F1,0.0,0.0,1.0,0.0,0.038397,0.438509,0.0,0.523094,0.04118,0.003895,0.01892,0.936004,RCGNTYARPHSLNRHVRF,12,_A,,UNK,lolaPJ
HKHNVL,lola,PJ,F2,0.00946,0.005843,0.0,0.984697,1.0,0.0,0.0,0.0,0.0,0.000556,0.0,0.999444,ICHKKSKHKHNLVLHMRT,41,RK,,UNK,lolaPJ
TRKSSR,lola,PK,F1,0.0,0.001574,0.998426,0.0,0.21348,0.197482,0.441385,0.147653,0.246525,0.121951,0.450564,0.18096,QCGKSYKTRKSLSRHRRF,12,_K,,UNK,lolaPK
RSDNTK,lola,PK,F2,0.0,0.003147,0.021768,0.975085,0.97561,0.022292,0.002098,0.0,0.0,0.001574,0.998426,0.0,SCNYAAKRSDNLTKHIKT,44,RK,,UNK,lolaPK
RLSAKR,lola,PL,F1,0.0,0.0,1.0,0.0,0.15672,0.066473,0.384765,0.392043,0.07181,0.0,0.469675,0.458515,QCPNAYTRLSALKRHLEF,12,_T,,UNK,lolaPL
RKDSNR,lola,PL,F2,0.0,0.0,1.0,0.0,0.0,0.0,0.0,1.0,0.0,0.0,1.0,0.0,VCDAGFKRKDSLNRHCKV,41,EK,,UNK,lolaPL
SHQKQE,lola,PO,F1,0.080769,0.880769,0.019231,0.019231,0.157692,0.234615,0.607692,0.0,0.161538,0.238462,0.473077,0.126923,HCNRYYKSHQKLQEHVRK,12,_K,,UNK,lolaPO
RKDHLR,lola,PO,F2,0.0,0.003846,0.892308,0.103846,0.0,0.0,1.0,0.0,0.0,0.0,0.961538,0.038462,SCEYRSRRKDHVLRHAKR,41,RR,,MODE2,lolaPO
VLGTRR,lola,PQ,F1,0.0,0.0,1.0,0.0,0.259341,0.0,0.0,0.740659,0.013187,0.083516,0.0,0.903297,TCGRRYQVLGTLRRHMRK,12,_Q,,UNK,lolaPQ
YNFKQD,lola,PQ,F2,0.096703,0.013187,0.89011,0.0,0.0,0.0,0.340659,0.659341,0.0,0.0,0.002198,0.997802,MCERRFHYNFKLQDHYYY,41,RH,,UNK,lolaPQ
YKKNSR,lola,PT,F1,0.0,0.0,1.0,0.0,0.930801,0.066486,0.0,0.002714,0.0,0.0,1.0,0.0,RCEKAYTYKKNLSRHLRY,12,_T,,UNK,lolaPT
YKHSNM,lola,PT,F2,0.378562,0.035278,0.373134,0.213026,0.024423,0.0,0.02578,0.949796,0.0,0.0,0.0,1.0,HCSYVARYKHSLNMHVKT,41,RR,,MODE2,lolaPT
YKKNSR,lola,PU,F1,0.0,0.0,1.0,0.0,0.959497,0.040503,0.0,0.0,0.0,0.0,1.0,0.0,RCEKAYTYKKNLSRHLRY,12,_T,,UNK,lolaPU
YKHSNM,lola,PU,F2,0.402235,0.037709,0.28352,0.276536,0.020601,0.0,0.032123,0.947277,0.0,0.0,0.020601,0.979399,HCSYVARYKHSLNMHVKT,41,RR,,MODE2,lolaPU
TLSRML,lola,PY,F1,0.0,0.0,1.0,0.0,0.0,0.0,0.06639,0.93361,0.007377,0.479945,0.0,0.512679,QCGRYYNTLSRLMLHQRE,12,_N,,UNK,lolaPY
RRSHNR,lola,PY,F2,0.722453,0.0,0.257722,0.019825,0.087137,0.0,0.847856,0.065007,0.0,0.0,1.0,0.0,FCLKWFKRRSHLNRHKKL,41,RK,,UNK,lolaPY
KSSHKA,luna,,F1,0.00817,0.039216,0.243464,0.70915,0.096405,0.029412,0.754902,0.119281,0.060458,0.044118,0.756536,0.138889,GCKKVYTKSSHLKAHQRT,8,_T,,UNK,luna
RSDETR,luna,,F2,0.001634,0.00817,0.960784,0.029412,0.027778,0.764706,0.001634,0.205882,0.0,0.0,0.99183,0.00817,GCEWRFARSDELTRHYRK,38,RA,,RA,luna
RSDHAL,luna,,F3,0.294118,0.058824,0.196078,0.45098,0.058824,0.0,0.911765,0.029412,0.006536,0.0,0.946078,0.047386,NCDRCFSRSDHLALHMKR,66,RS,,RS,luna
KSYNLI,odd,,F1,0.273,0.0,0.0,0.727,0.909,0.0,0.0,0.091,0.0,0.091,0.909,0.0,YCNRQFTKSYNLLIHERT,11,_T,,UNK,odd
RQDHRD,odd,,F2,0.045,0.955,0.0,0.0,0.545,0.0,0.455,0.0,0.0,0.0,1.0,0.0,ICGKAFRRQDHLRDHRYI,39,RR,,MODE2,odd
QSRTAV,odd,,F3,0.25,0.25,0.25,0.25,0.364,0.091,0.091,0.455,0.273,0.5,0.091,0.136,DCGKGFCQSRTLAVHKVT,67,YC,,MODE5,odd
HPSSRK,opa,,F5,0.130306,0.342562,0.416021,0.111111,0.447398,0.325951,0.221853,0.004799,0.101883,0.805463,0.019195,0.073459,GCDKSYTHPSSLRKHMKV,146,HT,,MODE6,opa
LQRLNR,ovo,,F1,0.007371,0.0,0.985258,0.007371,0.004914,0.0,0.0,0.995086,0.054054,0.0,0.002457,0.943489,VCMKTFSLQRLLNRHMKC,9,_S,,UNK,ovo
DTFDKR,ovo,,F2,0.449631,0.383292,0.04914,0.117936,0.014742,0.985258,0.0,0.0,0.019656,0.980344,0.0,0.0,FCGKGFNDTFDLKRHTRT,37,KN,,UNK,ovo
QRCSES,ovo,,F3,0.365045,0.08213,0.251663,0.301162,0.296078,0.025789,0.502448,0.175685,0.113022,0.029484,0.054054,0.80344,LCEKSFTQRCSLESHCQK,65,RT,,MODE2,ovo
KKEHTQ,pad,,F1,0.570231,0.067785,0.079665,0.28232,0.680643,0.067785,0.032145,0.219427,0.269778,0.334694,0.247343,0.148185,TCKREFKKKEHLTQHVKL,4,_K,,UNK,pad
RKEHSR,pad,,F2,0.0,0.0,1.0,0.0,0.062893,0.0,0.928721,0.008386,0.006988,0.0,0.946191,0.04682,GCDKTFSRKEHLSRHLVS,34,KS,,MODE4,pad
RKDNNK,pad,,F3,0.265549,0.201258,0.39972,0.133473,0.772886,0.114605,0.009085,0.103424,0.001398,0.0,0.997205,0.001398,VCKKPFSRKDNLNKHRRI,62,VS,,MODE3,pad
SASSDR,peb-F1-3,,F2,0.0,0.0,1.0,0.0,0.022683,0.903023,0.031552,0.042742,0.069807,0.121686,0.131345,0.677162,ICSKVLSSASSLDRHVLV,37,RS,,RS,peb-F1-3
TNGNHR,peb-F1-3,,F3,0.0,0.0,1.0,0.0,0.999257,0.000743,0.0,0.0,0.0,0.0,0.0,1.0,YCHLTFTTNGNMHRHMRT,65,LT,,UNK,peb-F1-3
DSSARK,pho,,F1,0.027972,0.102564,0.792541,0.076923,0.188811,0.144522,0.566434,0.100233,0.32569,0.486664,0.071746,0.1159,GCNKHFRDSSAMRKHLHT,7,_R,,UNK,pho
ESSKKR,pho,,F2,0.0,0.0,1.0,0.0,0.0,0.0,1.0,0.0,0.086247,0.892774,0.0,0.020979,ECGKAFVESSKLKRHQLV,34,HV,,MODE5,pho
LDFNRT,pho,,F3,0.515152,0.121212,0.20979,0.153846,0.97669,0.0,0.0,0.02331,0.0,0.0,0.0,1.0,GCGKRFSLDFNLRTHVRI,64,LS,,MODE4,pho
QSTNKS,pho,,F4,0.312354,0.475524,0.135198,0.076923,0.69697,0.060606,0.18648,0.055944,0.568765,0.137529,0.013986,0.27972,ACNKKFAQSTNLKSHILT,94,RA,,RA,pho
NHSARK,phol,,F1,0.049906,0.089454,0.787194,0.073446,0.225047,0.249529,0.370056,0.155367,0.302002,0.529919,0.059109,0.10897,GCNKEFRNHSAMRKHMHT,8,_R,,UNK,phol
ESSKKR,phol,,F2,0.0,0.0,0.967043,0.032957,0.0,0.001883,0.97646,0.021657,0.048023,0.909605,0.000942,0.041431,VCGKSFVESSKLKRHQLV,35,HV,,MODE5,phol
LDFNRT,phol,,F3,0.312618,0.199623,0.257062,0.230697,0.97081,0.0,0.0,0.02919,0.0,0.000942,0.006591,0.992467,GCGKRFSLDFNLRTHVRI,65,LS,,MODE4,phol
QSTNKS,phol,,F4,0.286252,0.548023,0.083804,0.081921,0.948211,0.012241,0.022599,0.016949,0.87194,0.046139,0.035782,0.046139,GCSKCFAQSTNLKSHMLT,95,RA,,RA,phol
NSSYSQ,rn,,F2,0.95339,0.04661,0.0,0.0,0.489407,0.283898,0.082627,0.144068,0.362288,0.302966,0.192797,0.141949,QCSKAFANSSYLSQHTRI,38,QA,,UNK,rn
QLSHQQ,rn,,F3,1.0,0.0,0.0,0.0,1.0,0.0,0.0,0.0,0.993644,0.0,0.0,0.006356,ICQRKFTQLSHLQQHIRT,66,RT,,MODE2,rn
QLSNQS,rn,,F4,0.112288,0.491525,0.17161,0.224576,0.980932,0.004237,0.008475,0.006356,0.955508,0.010593,0.0,0.033898,GCQKAFSQLSNLQSHSRC,96,RS,,RS,rn
RSSTST,sens,,F1,0.055085,0.834746,0.088983,0.021186,0.455508,0.008475,0.398305,0.137712,0.177966,0.021186,0.764831,0.036017,QCGKSFKRSSTLSTHLLI,17,_K,,UNK,sens
QKSDKK,sens,,F2,0.0,0.0,0.010593,0.989407,0.012712,0.951271,0.0,0.036017,0.822034,0.0,0.008475,0.169492,YCGKRFHQKSDMKKHTYI,45,LH,,MODE2,sens
QSSNIT,sens,,F3,0.739407,0.17161,0.044492,0.044492,0.985169,0.0,0.0,0.014831,0.972458,0.002119,0.0,0.025424,VCLKAFSQSSNLITHMRK,73,YS,,MODE4,sens
HEVSSQ,sens2,,F2,0.115548,0.697563,0.068898,0.117991,0.384591,0.337722,0.118259,0.159428,0.25,0.25,0.25,0.25,LCNKTFGHEVSLSQHRAV,47,RG,,MODE1,sens2
RSSTST,sens2,,F3,0.067182,0.768322,0.164495,0.0,0.459283,0.014251,0.318811,0.207655,0.191368,0.052932,0.705619,0.050081,QCGKRFKRSSTLSTHLLI,75,AK,,UNK,sens2
QKSDKK,sens2,,F4,0.0,0.002443,0.125407,0.87215,0.0,1.0,0.0,0.0,0.764251,0.010993,0.022394,0.202362,YCGKRFHQKSDMKKHTYI,103,LH,,MODE2,sens2
QSSNIT,sens2,,F5,0.585684,0.285448,0.083901,0.044967,0.993617,0.002515,0.002108,0.00176,0.999593,0.000407,0.0,0.0,VCGKAFSQSSNLITHSRK,131,YS,,MODE4,sens2
KPSVEK,shn-F1-2,,F1,0.003247,0.001623,0.0,0.99513,0.0,0.964286,0.001623,0.034091,0.001623,0.99026,0.0,0.008117,YCNLICAKPSVLEKHIRA,5,_A,,UNK,shn-F1-2
TKSNYK,shn-F1-2,,F2,0.194805,0.011364,0.785714,0.008117,0.962662,0.030844,0.006494,0.0,0.183442,0.077922,0.0,0.738636,TCGIAFKTKSNLYKHCRS,33,RK,,UNK,shn-F1-2
TIGAKM,sna,,F2,0.092981,0.174111,0.0,0.732908,0.092069,0.372835,0.03464,0.500456,0.42753,0.268915,0.211486,0.092069,ECGKLYTTIGALKMHIRT,43,QT,,UNK,sna
RPWLQG,sna,,F3,0.004558,0.987238,0.000912,0.007293,0.000912,0.0,0.0,0.999088,0.0,0.005469,0.96536,0.02917,ICGKAFSRPWLLQGHIRT,69,RS,,RS,sna
DRSNRA,sna,,F4,0.05196,0.919781,0.001823,0.026436,0.962625,0.016408,0.010027,0.010939,0.001823,0.991796,0.003646,0.002735,DCPRSFADRSNLRAHQQT,97,RA,,RA,sna
RMSLNK,sna,,F5,0.25,0.25,0.25,0.25,0.25,0.25,0.25,0.25,0.212508,0.579653,0.1503,0.05754,VCHKSFSRMSLLNKHSSS,125,QS,,UNK,sna
KSYNLI,sob,,F1,0.169069,0.013106,0.018349,0.799476,0.947575,0.001311,0.026212,0.024902,0.0,0.0,0.982962,0.017038,FCNRQFTKSYNLLIHERT,10,_T,,UNK,sob
RQDHRD,sob,,F2,0.057667,0.878113,0.001311,0.06291,0.539974,0.0,0.351245,0.108781,0.0,0.0,0.916121,0.083879,ICGKAFRRQDHLRDHRYI,38,RR,,MODE2,sob
QSRTAV,sob,,F3,0.017666,0.865179,0.000465,0.11669,0.291957,0.077638,0.469084,0.16132,0.240818,0.25523,0.268247,0.235704,ECGKGFCQSRTLAVHKIL,66,YC,,MODE5,sob
QRSNKT,sob,,F4,0.00093,0.0,0.028824,0.970246,0.859135,0.0,0.137146,0.003719,0.992097,0.006509,0.00093,0.000465,VCNRSFNQRSNLKTHLLT,94,IN,,MODE5,sob
RNCDRR,sob,,F5,0.139005,0.006044,0.800558,0.054393,0.006044,0.992097,0.001395,0.000465,0.00093,0.0,0.877731,0.121339,SCGKVFRRNCDLRRHSLT,122,LR,,MODE6,sob
KTSHKA,Sp1,,F1,0.0,0.001736,0.487847,0.510417,0.223958,0.027778,0.588542,0.159722,0.272569,0.114583,0.451389,0.161458,GCGKVYGKTSHLKAHLRW,36,_G,,UNK,Sp1
RSDEQR,Sp1,,F2,0.0,0.0,0.987847,0.012153,0.046875,0.885417,0.0,0.067708,0.005208,0.0,0.96875,0.026042,FCGKRFTRSDELQRHLRT,66,RT,,MODE2,Sp1
RSDHAK,Sp1,,F3,0.114583,0.003472,0.411458,0.470486,0.126736,0.0,0.857639,0.015625,0.005208,0.0,0.977431,0.017361,VCNKRFMRSDHLAKHVKT,94,RM,,MODE2,Sp1
NSSYSQ,sqz,,F1,0.997658,0.0,0.0,0.002342,0.64637,0.250585,0.009368,0.093677,0.483607,0.217799,0.173302,0.125293,SCSKSFANSSYLSQHTRI,9,_A,,UNK,sqz
QLSHQQ,sqz,,F2,0.998829,0.0,0.001171,0.0,1.0,0.0,0.0,0.0,0.987119,0.0,0.0,0.012881,ICQRKFTQLSHLQQHIRT,37,RT,,MODE2,sqz
QLSNQS,sqz,,F3,0.318501,0.489461,0.004684,0.187354,0.991803,0.0,0.004684,0.003513,0.974239,0.0,0.0,0.025761,GCPKAFSQLSNLQSHSRC,67,RS,,RS,sqz
RSDETR,sr,,F1,0.0,0.0,0.983747,0.016253,0.122754,0.510693,0.038922,0.32763,0.057314,0.038494,0.819076,0.085115,NCDRRFSRSDELTRHIRI,36,_S,,UNK,sr
RSDHTT,sr,,F2,0.025235,0.002566,0.298118,0.67408,0.150556,0.0,0.832763,0.016681,0.0,0.0,1.0,0.0,ICMRSFSRSDHLTTHIRT,64,RS,,RS,sr
RSDEKR,sr,,F3,0.154833,0.098375,0.590248,0.156544,0.093242,0.461078,0.136869,0.308811,0.0,0.0,0.996578,0.003422,ICGRKFARSDEKKRHAKV,92,RA,,RA,sr
DPSSRK,sug,,F5,0.107692,0.14965,0.637762,0.104895,0.682517,0.188811,0.128671,0.0,0.034965,0.960839,0.0,0.004196,GCQKRYTDPSSLRKHVKT,132,RT,,MODE2,sug
HISNCR,ttk,PF,F1,0.0,0.0,0.991561,0.008439,1.0,0.0,0.0,0.0,0.0,0.548805,0.004501,0.446695,VCSRVYTHISNFCRHYVT,38,_T,,UNK,ttkPF
RKDNTA,ttk,PF,F2,0.672855,0.309705,0.00647,0.01097,1.0,0.0,0.0,0.0,0.0,0.0,0.997187,0.002813,FCFKEFTRKDNMTAHVKI,68,VT,,MODE1,ttkPF
HKTDRR,vfl,,F3,0.001314,0.0,0.985545,0.013141,0.005256,0.0,0.003942,0.990802,0.99343,0.00657,0.0,0.0,LCPKQFHHKTDLRRHVEA,84,GH,,UNK,vfl
RKDHRK,vfl,,F4,0.009198,0.984231,0.0,0.00657,0.99343,0.001314,0.001314,0.003942,0.0,0.0,0.960578,0.039422,ICEKGFCRKDHLRKHLET,113,EC,,UNK,vfl
SLGAKM,wor,,F3,0.0567,0.615541,0.013534,0.314225,0.25,0.25,0.25,0.25,0.25,0.25,0.25,0.25,NCDKTYVSLGALKMHIRT,126,QV,,MODE5,wor
RPWLQG,wor,,F4,0.012263,0.971572,0.0,0.016165,0.0,0.0,0.004459,0.995541,0.005643,0.001325,0.981258,0.011774,ICGKAFSRPWLLQGHIRT,152,RS,,RS,wor
DRSNRA,wor,,F5,0.081431,0.848613,0.015837,0.054118,0.960981,0.010591,0.0,0.028428,0.0,0.986622,0.0,0.013378,HCNRAFADRSNLRAHMQT,180,RA,,RA,wor
